{
  "Statement": [
      {
          "Action": [
              "ec2:DeleteTags"
          ],
          "Condition": {
              "ForAllValues:StringEquals": {
                  "aws:TagKeys": [
                      "DNSName"
                  ]
              }
          },
          "Effect": "Deny",
          "Resource": "*",
          "Sid": "DenyDNSNameTagDeletion"
      },
      {
          "Action": [
              "ec2:DeleteTags",
              "ec2:CreateTags"
          ],
          "Condition": {
              "ForAllValues:StringEquals": {
                  "aws:TagKeys": [
                      "DDNS"
                  ]
              }
          },
          "Effect": "Deny",
          "Resource": "*",
          "Sid": "DenyDDNSTagChanges"
      }
  ],
  "Version": "2012-10-17"
}