{
  "Version": "2012-10-17",
  "Statement": [
      {
          "Sid": "CoreNetworkDDNSLambdaRestricted",
          "Effect": "Allow",
          "Action": [
              "ec2:Describe*",
              "ec2:CreateTags",
              "ec2:DeleteTags"
          ],
          "Resource": "*",
          "Condition": {
              "ForAllValues:StringEquals": {
                  "aws:TagKeys": [
                      "DDNS"
                  ]
              },
              "StringEquals": {
                  "aws:RequestedRegion": [
                      "us-east-1",
                      "us-east-2"
                  ]
              }
          }
      }
  ]
}
